{
"release":"1.0",	
"postDate":"",
"postedBy":"",
"status":"",
"remaining":"",
"ranBy":"",
"runTime":"",
"approvedBy":"",
"jobs":[{
	"id":"",
	"jobName":"Invoke Maven Artifacts",
	"jobDescription":"Invokes top level maven goals.",
	"host":"10.19.38.253",
	"scriptLocation":"/home/supratim/maven.sh",
	"state":"Pending",
	"declineReason":"",
	"runTime":"",
	"timeTaken":"",
	"runStatus":"",
	"errorDescription":"",
	"jobColor":"#123452"
},
{
	"id":"",
	"jobName":"Invoke Maven Artifacts",
	"jobDescription":"Invokes top level maven goals.",
	"host":"10.19.38.253",
	"scriptLocation":"",
	"state":"Pending",
	"declineReason":"",
	"runStatus":"",
	"errorDescription":"",
	"jobColor":"#acfed1"
},
{
	"id":"",
	"jobName":"Invoke Maven Artifacts",
	"jobDescription":"Invokes top level maven goals.",
	"host":"10.19.38.253",
	"scriptLocation":"",
	"state":"Pending",
	"declineReason":"",
	"runStatus":"",
	"errorDescription":"",
	"jobColor":"#cda312"
}]
}